<?xml version="1.0" encoding="UTF-8"?>
<glyph name="Ccedilla.2" format="1">
  <advance width="230"/>
  <outline>
    <contour>
      <point x="181" y="-132" type="curve"/>
      <point x="150" y="-132"/>
      <point x="134" y="-111"/>
      <point x="125" y="-94" type="curve"/>
      <point x="129" y="-89" type="line"/>
      <point x="137" y="-95"/>
      <point x="143" y="-99"/>
      <point x="159" y="-99" type="curve"/>
      <point x="175" y="-99"/>
      <point x="183" y="-87"/>
      <point x="183" y="-76" type="curve"/>
      <point x="183" y="-63"/>
      <point x="177" y="-55"/>
      <point x="167" y="-55" type="curve"/>
      <point x="159" y="-55"/>
      <point x="155" y="-58"/>
      <point x="148" y="-64" type="curve"/>
      <point x="142" y="-59" type="line"/>
      <point x="170" y="-4" type="line"/>
      <point x="150" y="12" type="line"/>
      <point x="188" y="2" type="line"/>
      <point x="168" y="-37" type="line"/>
      <point x="172" y="-40" type="line"/>
      <point x="178" y="-38"/>
      <point x="185" y="-37"/>
      <point x="191" y="-37" type="curve"/>
      <point x="214" y="-37"/>
      <point x="233" y="-49"/>
      <point x="233" y="-77" type="curve"/>
      <point x="233" y="-109"/>
      <point x="209" y="-132"/>
    </contour>
    <component base="C.2"/>
  </outline>
  <lib>
    <dict>
      <key>com.schriftgestaltung.Glyphs.lastChange</key>
      <string>2019-04-26 20:29:54 +0000</string>
      <key>com.typemytype.robofont.layerData</key>
      <dict>
        <key>background</key>
        <dict>
          <key>anchors</key>
          <array>
          </array>
          <key>components</key>
          <array>
            <dict>
              <key>baseGlyph</key>
              <string>cedilla</string>
              <key>transformation</key>
              <array>
                <integer>1</integer>
                <integer>0</integer>
                <integer>0</integer>
                <integer>1</integer>
                <integer>54</integer>
                <integer>-2</integer>
              </array>
            </dict>
          </array>
          <key>contours</key>
          <array>
          </array>
          <key>lib</key>
          <dict>
          </dict>
          <key>name</key>
          <string>Ccedilla.2</string>
          <key>unicodes</key>
          <array>
          </array>
          <key>width</key>
          <integer>230</integer>
        </dict>
      </dict>
    </dict>
  </lib>
</glyph>
