<?xml version="1.0" encoding="UTF-8"?>
<glyph name="ellipsis" format="1">
  <advance width="428"/>
  <unicode hex="2026"/>
  <outline>
    <component base="period"/>
    <component base="period" xOffset="146"/>
    <component base="period" xOffset="292"/>
  </outline>
  <lib>
    <dict>
      <key>com.schriftgestaltung.Glyphs.lastChange</key>
      <string>2019-04-26 20:29:54 +0000</string>
    </dict>
  </lib>
</glyph>
