<?xml version="1.0" encoding="UTF-8"?>
<glyph name="guillemotleft.cap" format="1">
  <advance width="265"/>
  <outline>
    <component base="guilsinglleft" xOffset="110" yOffset="73"/>
    <component base="guilsinglleft" yOffset="73"/>
  </outline>
  <lib>
    <dict>
      <key>com.schriftgestaltung.Glyphs.lastChange</key>
      <string>2019-07-03 09:52:01 +0000</string>
      <key>com.schriftgestaltung.Glyphs.leftMetricsKey</key>
      <string>guilsinglleft</string>
      <key>com.schriftgestaltung.Glyphs.rightMetricsKey</key>
      <string>guilsinglleft</string>
    </dict>
  </lib>
</glyph>
