<?xml version="1.0" encoding="UTF-8"?>
<glyph name="Q.2" format="1">
  <advance width="298"/>
  <outline>
    <contour>
      <point x="142" y="672" type="curve"/>
      <point x="112" y="672"/>
      <point x="105" y="650"/>
      <point x="105" y="615" type="curve"/>
      <point x="105" y="151" type="line" smooth="yes"/>
      <point x="105" y="79"/>
      <point x="125" y="68"/>
      <point x="149" y="68" type="curve"/>
      <point x="175" y="68"/>
      <point x="181" y="99"/>
      <point x="181" y="148" type="curve"/>
      <point x="181" y="589" type="line" smooth="yes"/>
      <point x="181" y="661"/>
      <point x="162" y="672"/>
    </contour>
    <contour>
      <point x="135" y="0" type="curve"/>
      <point x="67" y="0"/>
      <point x="30" y="32"/>
      <point x="30" y="117" type="curve"/>
      <point x="30" y="605" type="line" smooth="yes"/>
      <point x="30" y="703"/>
      <point x="84" y="740"/>
      <point x="149" y="740" type="curve"/>
      <point x="219" y="740"/>
      <point x="256" y="709"/>
      <point x="256" y="623" type="curve"/>
      <point x="256" y="163" type="line" smooth="yes"/>
      <point x="256" y="86"/>
      <point x="218" y="34"/>
      <point x="163" y="27" type="curve"/>
      <point x="163" y="17" type="line"/>
      <point x="220" y="18" type="line"/>
      <point x="280" y="-44"/>
      <point x="317" y="-67"/>
      <point x="371" y="-67" type="curve"/>
      <point x="414" y="-67"/>
      <point x="431" y="-57"/>
      <point x="432" y="-31" type="curve"/>
      <point x="435" y="24" type="line" smooth="yes"/>
      <point x="449" y="24" type="line"/>
      <point x="452" y="-27" type="line" smooth="yes"/>
      <point x="455" y="-85"/>
      <point x="436" y="-130"/>
      <point x="353" y="-130" type="curve"/>
      <point x="293" y="-130"/>
      <point x="242" y="-100"/>
      <point x="184" y="-33" type="curve"/>
      <point x="164" y="-9"/>
      <point x="154" y="0"/>
    </contour>
    <contour>
      <point x="147" y="760" type="move" name="top"/>
    </contour>
  </outline>
  <lib>
    <dict>
      <key>com.schriftgestaltung.Glyphs.lastChange</key>
      <string>2019-04-26 20:29:54 +0000</string>
      <key>com.typemytype.robofont.layerData</key>
      <dict>
        <key>background</key>
        <dict>
          <key>anchors</key>
          <array>
          </array>
          <key>components</key>
          <array>
            <dict>
              <key>baseGlyph</key>
              <string>Q</string>
              <key>transformation</key>
              <array>
                <integer>1</integer>
                <integer>0</integer>
                <integer>0</integer>
                <integer>1</integer>
                <integer>0</integer>
                <integer>0</integer>
              </array>
            </dict>
          </array>
          <key>contours</key>
          <array>
          </array>
          <key>lib</key>
          <dict>
            <key>com.typemytype.robofont.layerData</key>
            <dict>
            </dict>
          </dict>
          <key>name</key>
          <string>Q.2</string>
          <key>unicodes</key>
          <array>
          </array>
          <key>width</key>
          <integer>298</integer>
        </dict>
      </dict>
      <key>public.markColor</key>
      <string>0,0,1,1</string>
    </dict>
  </lib>
</glyph>
