<?xml version="1.0" encoding="UTF-8"?>
<glyph name="uni0412" format="1">
  <advance width="289"/>
  <unicode hex="0412"/>
  <outline>
    <component base="B"/>
  </outline>
  <lib>
    <dict>
      <key>com.schriftgestaltung.Glyphs.lastChange</key>
      <string>2019-07-03 10:35:05 +0000</string>
    </dict>
  </lib>
</glyph>
