<?xml version="1.0" encoding="UTF-8"?>
<glyph name="uni0490" format="1">
  <advance width="223"/>
  <unicode hex="0490"/>
  <outline>
    <contour>
      <point x="193" y="850" type="line"/>
      <point x="153" y="723" type="line"/>
      <point x="213" y="723" type="line"/>
      <point x="213" y="850" type="line"/>
    </contour>
    <component base="uni0413"/>
  </outline>
  <lib>
    <dict>
      <key>com.schriftgestaltung.Glyphs.lastChange</key>
      <string>2019-07-03 09:58:20 +0000</string>
      <key>com.schriftgestaltung.Glyphs.leftMetricsKey</key>
      <string>Ge-cy</string>
      <key>com.schriftgestaltung.Glyphs.rightMetricsKey</key>
      <string>Ge-cy</string>
    </dict>
  </lib>
</glyph>
